WARN: OMP_NUM_THREADS=None =>
... If you are using openblas if you are using openblas set OMP_NUM_THREADS=1 or risk subprocess calls hanging indefinitely
/home/howard/anaconda3/envs/Numerai/lib/python3.4/site-packages/sklearn/cross_validation.py:44: DeprecationWarning: This module was deprecated in version 0.18 in favor of the model_selection module into which all the refactored classes and functions are moved. Also note that the interface of the new CV iterators are different from that of this module. This module will be removed in 0.20.
  "This module will be removed in 0.20.", DeprecationWarning)
0.519940447135
{'preprocs': (StandardScaler(copy=True, with_mean=False, with_std=False),), 'ex_preprocs': (), 'learner': SVC(C=28.499682231926144, cache_size=512, class_weight=None, coef0=0.0,
  decision_function_shape=None, degree=1, gamma='auto', kernel='linear',
  max_iter=12503978.0, probability=False, random_state=4, shrinking=False,
  tol=0.0023822921840429964, verbose=False)}
